CRITICAL - 2023-10-14 04:40:05 --> Undefined variable $slug
in APPPATH\Views\layers\maps.php on line 24.
 1 APPPATH\Views\layers\maps.php(24): CodeIgniter\Debug\Exceptions->errorHandler(2, 'Undefined variable $slug', 'C:\\xampp\\htdocs\\tugas-akhir-1\\app\\Views\\layers\\maps.php', 24)
 2 SYSTEMPATH\View\View.php(224): include('C:\\xampp\\htdocs\\tugas-akhir-1\\app\\Views\\layers\\maps.php')
 3 SYSTEMPATH\View\View.php(227): CodeIgniter\View\View->CodeIgniter\View\{closure}()
 4 SYSTEMPATH\Common.php(1180): CodeIgniter\View\View->render('layers/maps', [], true)
 5 APPPATH\Controllers\Maps.php(36): view('layers/maps', [...])
 6 SYSTEMPATH\CodeIgniter.php(932): App\Controllers\Maps->index()
 7 SYSTEMPATH\CodeIgniter.php(497): CodeIgniter\CodeIgniter->runController(Object(App\Controllers\Maps))
 8 SYSTEMPATH\CodeIgniter.php(366): CodeIgniter\CodeIgniter->handleRequest(null, Object(Config\Cache), false)
 9 FCPATH\index.php(67): CodeIgniter\CodeIgniter->run()
10 SYSTEMPATH\Commands\Server\rewrite.php(47): require_once('C:\\xampp\\htdocs\\tugas-akhir-1\\public\\index.php')
CRITICAL - 2023-10-14 04:40:46 --> Undefined variable $slug
in APPPATH\Views\layers\maps.php on line 24.
 1 APPPATH\Views\layers\maps.php(24): CodeIgniter\Debug\Exceptions->errorHandler(2, 'Undefined variable $slug', 'C:\\xampp\\htdocs\\tugas-akhir-1\\app\\Views\\layers\\maps.php', 24)
 2 SYSTEMPATH\View\View.php(224): include('C:\\xampp\\htdocs\\tugas-akhir-1\\app\\Views\\layers\\maps.php')
 3 SYSTEMPATH\View\View.php(227): CodeIgniter\View\View->CodeIgniter\View\{closure}()
 4 SYSTEMPATH\Common.php(1180): CodeIgniter\View\View->render('layers/maps', [], true)
 5 APPPATH\Controllers\Maps.php(36): view('layers/maps', [...])
 6 SYSTEMPATH\CodeIgniter.php(932): App\Controllers\Maps->index()
 7 SYSTEMPATH\CodeIgniter.php(497): CodeIgniter\CodeIgniter->runController(Object(App\Controllers\Maps))
 8 SYSTEMPATH\CodeIgniter.php(366): CodeIgniter\CodeIgniter->handleRequest(null, Object(Config\Cache), false)
 9 FCPATH\index.php(67): CodeIgniter\CodeIgniter->run()
10 SYSTEMPATH\Commands\Server\rewrite.php(47): require_once('C:\\xampp\\htdocs\\tugas-akhir-1\\public\\index.php')
CRITICAL - 2023-10-14 04:42:30 --> Undefined variable $slug
in APPPATH\Views\layers\maps.php on line 24.
 1 APPPATH\Views\layers\maps.php(24): CodeIgniter\Debug\Exceptions->errorHandler(2, 'Undefined variable $slug', 'C:\\xampp\\htdocs\\tugas-akhir-1\\app\\Views\\layers\\maps.php', 24)
 2 SYSTEMPATH\View\View.php(224): include('C:\\xampp\\htdocs\\tugas-akhir-1\\app\\Views\\layers\\maps.php')
 3 SYSTEMPATH\View\View.php(227): CodeIgniter\View\View->CodeIgniter\View\{closure}()
 4 SYSTEMPATH\Common.php(1180): CodeIgniter\View\View->render('layers/maps', [], true)
 5 APPPATH\Controllers\Maps.php(36): view('layers/maps', [...])
 6 SYSTEMPATH\CodeIgniter.php(932): App\Controllers\Maps->index()
 7 SYSTEMPATH\CodeIgniter.php(497): CodeIgniter\CodeIgniter->runController(Object(App\Controllers\Maps))
 8 SYSTEMPATH\CodeIgniter.php(366): CodeIgniter\CodeIgniter->handleRequest(null, Object(Config\Cache), false)
 9 FCPATH\index.php(67): CodeIgniter\CodeIgniter->run()
10 SYSTEMPATH\Commands\Server\rewrite.php(47): require_once('C:\\xampp\\htdocs\\tugas-akhir-1\\public\\index.php')
CRITICAL - 2023-10-14 04:43:16 --> Undefined variable $slug
in APPPATH\Views\layers\maps.php on line 24.
 1 APPPATH\Views\layers\maps.php(24): CodeIgniter\Debug\Exceptions->errorHandler(2, 'Undefined variable $slug', 'C:\\xampp\\htdocs\\tugas-akhir-1\\app\\Views\\layers\\maps.php', 24)
 2 SYSTEMPATH\View\View.php(224): include('C:\\xampp\\htdocs\\tugas-akhir-1\\app\\Views\\layers\\maps.php')
 3 SYSTEMPATH\View\View.php(227): CodeIgniter\View\View->CodeIgniter\View\{closure}()
 4 SYSTEMPATH\Common.php(1180): CodeIgniter\View\View->render('layers/maps', [], true)
 5 APPPATH\Controllers\Maps.php(36): view('layers/maps', [...])
 6 SYSTEMPATH\CodeIgniter.php(932): App\Controllers\Maps->index()
 7 SYSTEMPATH\CodeIgniter.php(497): CodeIgniter\CodeIgniter->runController(Object(App\Controllers\Maps))
 8 SYSTEMPATH\CodeIgniter.php(366): CodeIgniter\CodeIgniter->handleRequest(null, Object(Config\Cache), false)
 9 FCPATH\index.php(67): CodeIgniter\CodeIgniter->run()
10 SYSTEMPATH\Commands\Server\rewrite.php(47): require_once('C:\\xampp\\htdocs\\tugas-akhir-1\\public\\index.php')
CRITICAL - 2023-10-14 04:44:09 --> Undefined variable $slug
in APPPATH\Views\layers\maps.php on line 24.
 1 APPPATH\Views\layers\maps.php(24): CodeIgniter\Debug\Exceptions->errorHandler(2, 'Undefined variable $slug', 'C:\\xampp\\htdocs\\tugas-akhir-1\\app\\Views\\layers\\maps.php', 24)
 2 SYSTEMPATH\View\View.php(224): include('C:\\xampp\\htdocs\\tugas-akhir-1\\app\\Views\\layers\\maps.php')
 3 SYSTEMPATH\View\View.php(227): CodeIgniter\View\View->CodeIgniter\View\{closure}()
 4 SYSTEMPATH\Common.php(1180): CodeIgniter\View\View->render('layers/maps', [], true)
 5 APPPATH\Controllers\Maps.php(36): view('layers/maps', [...])
 6 SYSTEMPATH\CodeIgniter.php(932): App\Controllers\Maps->index()
 7 SYSTEMPATH\CodeIgniter.php(497): CodeIgniter\CodeIgniter->runController(Object(App\Controllers\Maps))
 8 SYSTEMPATH\CodeIgniter.php(366): CodeIgniter\CodeIgniter->handleRequest(null, Object(Config\Cache), false)
 9 FCPATH\index.php(67): CodeIgniter\CodeIgniter->run()
10 SYSTEMPATH\Commands\Server\rewrite.php(47): require_once('C:\\xampp\\htdocs\\tugas-akhir-1\\public\\index.php')
CRITICAL - 2023-10-14 05:34:50 --> Undefined variable $maps
in APPPATH\Views\layers\detail.php on line 7.
 1 APPPATH\Views\layers\detail.php(7): CodeIgniter\Debug\Exceptions->errorHandler(2, 'Undefined variable $maps', 'C:\\xampp\\htdocs\\tugas-akhir-1\\app\\Views\\layers\\detail.php', 7)
 2 SYSTEMPATH\View\View.php(224): include('C:\\xampp\\htdocs\\tugas-akhir-1\\app\\Views\\layers\\detail.php')
 3 SYSTEMPATH\View\View.php(227): CodeIgniter\View\View->CodeIgniter\View\{closure}()
 4 SYSTEMPATH\Common.php(1180): CodeIgniter\View\View->render('layers/detail', [], true)
 5 APPPATH\Controllers\Maps.php(47): view('layers/detail', [...])
 6 SYSTEMPATH\CodeIgniter.php(932): App\Controllers\Maps->detail('aditya-primadi')
 7 SYSTEMPATH\CodeIgniter.php(497): CodeIgniter\CodeIgniter->runController(Object(App\Controllers\Maps))
 8 SYSTEMPATH\CodeIgniter.php(366): CodeIgniter\CodeIgniter->handleRequest(null, Object(Config\Cache), false)
 9 FCPATH\index.php(67): CodeIgniter\CodeIgniter->run()
10 SYSTEMPATH\Commands\Server\rewrite.php(47): require_once('C:\\xampp\\htdocs\\tugas-akhir-1\\public\\index.php')
CRITICAL - 2023-10-14 05:48:48 --> Undefined variable $maps
in APPPATH\Views\layers\detail.php on line 11.
 1 APPPATH\Views\layers\detail.php(11): CodeIgniter\Debug\Exceptions->errorHandler(2, 'Undefined variable $maps', 'C:\\xampp\\htdocs\\tugas-akhir-1\\app\\Views\\layers\\detail.php', 11)
 2 SYSTEMPATH\View\View.php(224): include('C:\\xampp\\htdocs\\tugas-akhir-1\\app\\Views\\layers\\detail.php')
 3 SYSTEMPATH\View\View.php(227): CodeIgniter\View\View->CodeIgniter\View\{closure}()
 4 SYSTEMPATH\Common.php(1180): CodeIgniter\View\View->render('layers/detail', [], true)
 5 APPPATH\Controllers\Maps.php(47): view('layers/detail', [...])
 6 SYSTEMPATH\CodeIgniter.php(932): App\Controllers\Maps->detail('dimas-rizki-novyadi')
 7 SYSTEMPATH\CodeIgniter.php(497): CodeIgniter\CodeIgniter->runController(Object(App\Controllers\Maps))
 8 SYSTEMPATH\CodeIgniter.php(366): CodeIgniter\CodeIgniter->handleRequest(null, Object(Config\Cache), false)
 9 FCPATH\index.php(67): CodeIgniter\CodeIgniter->run()
10 SYSTEMPATH\Commands\Server\rewrite.php(47): require_once('C:\\xampp\\htdocs\\tugas-akhir-1\\public\\index.php')
CRITICAL - 2023-10-14 05:57:02 --> Undefined variable $maps
in APPPATH\Views\layers\maps.php on line 19.
 1 APPPATH\Views\layers\maps.php(19): CodeIgniter\Debug\Exceptions->errorHandler(2, 'Undefined variable $maps', 'C:\\xampp\\htdocs\\tugas-akhir-1\\app\\Views\\layers\\maps.php', 19)
 2 SYSTEMPATH\View\View.php(224): include('C:\\xampp\\htdocs\\tugas-akhir-1\\app\\Views\\layers\\maps.php')
 3 SYSTEMPATH\View\View.php(227): CodeIgniter\View\View->CodeIgniter\View\{closure}()
 4 SYSTEMPATH\Common.php(1180): CodeIgniter\View\View->render('layers/maps', [], true)
 5 APPPATH\Controllers\Maps.php(36): view('layers/maps', [...])
 6 SYSTEMPATH\CodeIgniter.php(932): App\Controllers\Maps->index()
 7 SYSTEMPATH\CodeIgniter.php(497): CodeIgniter\CodeIgniter->runController(Object(App\Controllers\Maps))
 8 SYSTEMPATH\CodeIgniter.php(366): CodeIgniter\CodeIgniter->handleRequest(null, Object(Config\Cache), false)
 9 FCPATH\index.php(67): CodeIgniter\CodeIgniter->run()
10 SYSTEMPATH\Commands\Server\rewrite.php(47): require_once('C:\\xampp\\htdocs\\tugas-akhir-1\\public\\index.php')
